%YAML 1.1
%TAG !u! tag:unity3d.com,2011:
--- !u!21 &2100000
Material:
  serializedVersion: 6
  m_ObjectHideFlags: 0
  m_PrefabParentObject: {fileID: 0}
  m_PrefabInternal: {fileID: 0}
  m_Name: HexgonSphereMatBlue
  m_Shader: {fileID: 4800000, guid: f56c26a8cea318848893b1f7c65265fa, type: 3}
  m_ShaderKeywords: F_OFF
  m_LightmapFlags: 0
  m_EnableInstancingVariants: 0
  m_DoubleSidedGI: 0
  m_CustomRenderQueue: -1
  stringTagMap: {}
  disabledShaderPasses: []
  m_SavedProperties:
    serializedVersion: 3
    m_TexEnvs:
    - _BumpMap:
        m_Texture: {fileID: 0}
        m_Scale: {x: 1, y: 1}
        m_Offset: {x: 0, y: 0}
    - _DetailAlbedoMap:
        m_Texture: {fileID: 0}
        m_Scale: {x: 1, y: 1}
        m_Offset: {x: 0, y: 0}
    - _DetailMask:
        m_Texture: {fileID: 0}
        m_Scale: {x: 1, y: 1}
        m_Offset: {x: 0, y: 0}
    - _DetailNormalMap:
        m_Texture: {fileID: 0}
        m_Scale: {x: 1, y: 1}
        m_Offset: {x: 0, y: 0}
    - _EmissionMap:
        m_Texture: {fileID: 0}
        m_Scale: {x: 1, y: 1}
        m_Offset: {x: 0, y: 0}
    - _MainTex:
        m_Texture: {fileID: 2800000, guid: 511656224960a9945857acc576171428, type: 3}
        m_Scale: {x: 5, y: 5}
        m_Offset: {x: 0, y: 0}
    - _MetallicGlossMap:
        m_Texture: {fileID: 0}
        m_Scale: {x: 1, y: 1}
        m_Offset: {x: 0, y: 0}
    - _OcclusionMap:
        m_Texture: {fileID: 0}
        m_Scale: {x: 1, y: 1}
        m_Offset: {x: 0, y: 0}
    - _ParallaxMap:
        m_Texture: {fileID: 0}
        m_Scale: {x: 1, y: 1}
        m_Offset: {x: 0, y: 0}
    m_Floats:
    - F: 0
    - _Alpha: 1.04
    - _BumpScale: 1
    - _ChromaticAberration: 0.3
    - _CullOff: 1
    - _Cutoff: 0.5
    - _DetailNormalMapScale: 1
    - _Distort: 100
    - _DstBlend: 0
    - _Float1: 2
    - _Float2: 3
    - _Fresnel: 200
    - _FresnelIntensity: 61
    - _FresnelWidth: 2
    - _GlossMapScale: 1
    - _Glossiness: 0.5
    - _GlossyReflections: 1
    - _Hold: 2
    - _IntersectionThreshold: 0.19
    - _MaskClipValue: -1.4
    - _Metallic: 0
    - _Mode: 0
    - _OcclusionStrength: 1
    - _Offset: 0
    - _Op: 0
    - _Parallax: 0.02
    - _Range: 0.2
    - _RimPower: 51
    - _RimWidth: 0.82
    - _ScrollSpeed: 2
    - _ScrollSpeedU: 0.48
    - _ScrollSpeedV: 4
    - _SmoothnessTextureChannel: 0
    - _SpecularHighlights: 1
    - _SrcBlend: 1
    - _Transform: 0
    - _UVSec: 0
    - _ZWrite: 1
    - __dirty: 1
    - _fr: 2.22
    - _intersect: 0.3
    - _node_6584: 0.8
    - _x: 0.063
    - _y: 0.122
    m_Colors:
    - _Color: {r: 0.8, g: 0.8, b: 0.8, a: 1}
    - _Color0: {r: 1, g: 0, b: 0, a: 1}
    - _EmissionColor: {r: 0, g: 0, b: 0, a: 1}
    - _MainColor: {r: 0.3405202, g: 0.2802768, b: 0.7941176, a: 0.316}
    - _intersectColor: {r: 1, g: 0, b: 0, a: 1}
    - _node_4016: {r: 0.034482475, g: 0, b: 1, a: 1}
    - _node_5050: {r: 0, g: 0, b: 0, a: 0}
    - _node_6799: {r: 0.5, g: 0.5, b: 0.5, a: 1}
