%YAML 1.1
%TAG !u! tag:unity3d.com,2011:
--- !u!1045 &1
EditorBuildSettings:
  m_ObjectHideFlags: 0
  serializedVersion: 2
  m_Scenes:
  - enabled: 1
    path: Assets/Scenes/Space.unity
    guid: 040c04a5ddca7184180db6dea5c4e3cc
  - enabled: 1
    path: Assets/Scenes/Mars.unity
    guid: 4bb4093966bc19d4eb528a475c016496
